.......................
----------------------------------------------------------------------
Ran 23 tests in 0.003s

OK
Name               Stmts   Miss Branch BrPart  Cover   Missing
--------------------------------------------------------------
Diplomacy.py         104      5     64      3    95%   27-29, 73, 91
TestDiplomacy.py     131      0      2      0   100%
--------------------------------------------------------------
TOTAL                235      5     66      3    97%
