................
----------------------------------------------------------------------
Ran 16 tests in 0.003s

OK
Name               Stmts   Miss Branch BrPart  Cover   Missing
--------------------------------------------------------------
Diplomacy.py          84      0     52      0   100%
TestDiplomacy.py      83      0      2      0   100%
--------------------------------------------------------------
TOTAL                167      0     54      0   100%
